Proyecto integrativo: visualización de datos de videojuegos
…
ventas_region_genero

# A tibble: 36 × 3
   Genre     region       ventas
   <chr>     <chr>         <dbl>
 1 Action    Norteamerica  862. 
 2 Action    Europa        516. 
 3 Action    Japon         159. 
 4 Adventure Norteamerica  102. 
 5 Adventure Europa         63.8
 6 Adventure Japon          52.0
 7 Fighting  Norteamerica  221. 
 8 Fighting  Europa        100  
 9 Fighting  Japon          87.2
10 Misc      Norteamerica  402. 
# ℹ 26 more rows
…
